{
 "add_total_row": 0,
 "columns": [],
 "creation": "2023-11-14 19:08:03.074097",
 "disable_prepared_report": 1,
 "disabled": 0,
 "docstatus": 0,
 "doctype": "Report",
 "filters": [],
 "idx": 0,
 "is_standard": "Yes",
 "modified": "2023-11-29 10:31:43.419150",
 "modified_by": "Administrator",
 "module": "Excel Hr",
 "name": "Excel Monthly Attendance Sheet",
 "owner": "Administrator",
 "prepared_report": 0,
 "ref_doctype": "Attendance",
 "report_name": "Excel Monthly Attendance Sheet",
 "report_type": "Script Report",
 "roles": [
  {
   "role": "System Manager"
  }
 ]
}